\babel@toc {ngerman}{}
\contentsline {section}{\numberline {1}Hardware -- was haben wir?}{1}{section.1}% 
\contentsline {section}{\numberline {2}Software}{2}{section.2}% 
\contentsline {section}{\numberline {3}Aufbau}{3}{section.3}% 
\contentsline {section}{\numberline {4}Roll-Along}{4}{section.4}% 
\contentsline {section}{\numberline {5}Einpacken}{5}{section.5}% 
\contentsline {section}{\numberline {6}Auspacken}{6}{section.6}% 
