\relax 
\providecommand\hyper@newdestlabel[2]{}
\providecommand*\new@tpo@label[2]{}
\catcode `"\active 
\providecommand\HyperFirstAtBeginDocument{\AtBeginDocument}
\HyperFirstAtBeginDocument{\ifx\hyper@anchor\@undefined
\global\let\oldcontentsline\contentsline
\gdef\contentsline#1#2#3#4{\oldcontentsline{#1}{#2}{#3}}
\global\let\oldnewlabel\newlabel
\gdef\newlabel#1#2{\newlabelxx{#1}#2}
\gdef\newlabelxx#1#2#3#4#5#6{\oldnewlabel{#1}{{#2}{#3}}}
\AtEndDocument{\ifx\hyper@anchor\@undefined
\let\contentsline\oldcontentsline
\let\newlabel\oldnewlabel
\fi}
\fi}
\global\let\hyper@last\relax 
\gdef\HyperFirstAtBeginDocument#1{#1}
\providecommand\HyField@AuxAddToFields[1]{}
\providecommand\HyField@AuxAddToCoFields[2]{}
\providecommand\BKM@entry[2]{}
\@input{sections/00_titelseite.aux}
\babel@aux{ngerman}{}
\oddpage@label{3}{1}
\oddpage@label{4}{1}
\oddpage@label{5}{1}
\@input{sections/01_hw.aux}
\BKM@entry{id=1,dest={73656374696F6E2E31},srcline={1},srcfile={73656374696F6E732F30315F68772E746578}}{4861726477617265205C3230352077617320686162656E207769723F}
\@input{sections/03_Software.aux}
\BKM@entry{id=2,dest={73656374696F6E2E32},srcline={1},srcfile={73656374696F6E732F30335F536F6674776172652E746578}}{536F667477617265}
\@input{sections/02_Aufbau.aux}
\BKM@entry{id=3,dest={73656374696F6E2E33},srcline={1},srcfile={73656374696F6E732F30325F4175666261752E746578}}{417566626175}
\@input{sections/04_rollalong.aux}
\BKM@entry{id=4,dest={73656374696F6E2E34},srcline={1},srcfile={73656374696F6E732F30345F726F6C6C616C6F6E672E746578}}{526F6C6C2D416C6F6E67}
\@input{sections/05_einpacken.aux}
\BKM@entry{id=5,dest={73656374696F6E2E35},srcline={1},srcfile={73656374696F6E732F30355F65696E7061636B656E2E746578}}{45696E7061636B656E}
\@input{sections/06_auspacken.aux}
\BKM@entry{id=6,dest={73656374696F6E2E36},srcline={1},srcfile={73656374696F6E732F30365F6175737061636B656E2E746578}}{4175737061636B656E}
\global\@namedef{scr@dte@section@lastmaxnumwidth}{10.57762pt}
\global\@namedef{scr@dte@table@lastmaxnumwidth}{15.29707pt}
\global\@namedef{scr@dte@figure@lastmaxnumwidth}{16.00882pt}
