\relax 
\providecommand\hyper@newdestlabel[2]{}
\gincltex@bb{bilder/img_gravimeter.tex}{0}{0}{170.47675}{156.30356}
\oddpage@label{3}{1}
\pgfsyspdfmark {pgfid4}{5594039}{52454693}
\oddpage@label{4}{1}
\pgfsyspdfmark {pgfid5}{19484056}{52454693}
\oddpage@label{5}{1}
\pgfsyspdfmark {pgfid6}{33374072}{52454693}
\@writefile{toc}{\contentsline {section}{\numberline {1}Ger\IeC {\"a}teumfang}{1}{section.1}\protected@file@percent }
\@writefile{toc}{\contentsline {section}{\numberline {2}Bedienung}{1}{section.2}\protected@file@percent }
\@writefile{toc}{\contentsline {section}{\numberline {3}Zu Beachten}{1}{section.3}\protected@file@percent }
\@setckpt{sections/01_grav}{
\setcounter{page}{2}
\setcounter{equation}{0}
\setcounter{enumi}{0}
\setcounter{enumii}{0}
\setcounter{enumiii}{0}
\setcounter{enumiv}{0}
\setcounter{footnote}{0}
\setcounter{mpfootnote}{0}
\setcounter{part}{0}
\setcounter{section}{3}
\setcounter{subsection}{0}
\setcounter{subsubsection}{0}
\setcounter{paragraph}{0}
\setcounter{subparagraph}{0}
\setcounter{figure}{0}
\setcounter{table}{0}
\setcounter{currfiledepth}{0}
\setcounter{caption@flags}{0}
\setcounter{ContinuedFloat}{0}
\setcounter{subfigure}{0}
\setcounter{subtable}{0}
\setcounter{parentequation}{0}
\setcounter{float@type}{8}
\setcounter{Item}{0}
\setcounter{Hfootnote}{0}
\setcounter{bookmark@seq@number}{0}
\setcounter{tcbbreakpart}{0}
\setcounter{tcblayer}{0}
\setcounter{@pps}{0}
\setcounter{@ppsavesec}{0}
\setcounter{@ppsaveapp}{0}
\setcounter{r@tfl@t}{0}
\setcounter{totalcount@figure}{0}
\setcounter{totalcount@subfigure}{0}
\setcounter{section@level}{0}
}
