\relax 
\providecommand\hyper@newdestlabel[2]{}
\providecommand*\new@tpo@label[2]{}
\catcode `"\active 
\providecommand\HyperFirstAtBeginDocument{\AtBeginDocument}
\HyperFirstAtBeginDocument{\ifx\hyper@anchor\@undefined
\global\let\oldcontentsline\contentsline
\gdef\contentsline#1#2#3#4{\oldcontentsline{#1}{#2}{#3}}
\global\let\oldnewlabel\newlabel
\gdef\newlabel#1#2{\newlabelxx{#1}#2}
\gdef\newlabelxx#1#2#3#4#5#6{\oldnewlabel{#1}{{#2}{#3}}}
\AtEndDocument{\ifx\hyper@anchor\@undefined
\let\contentsline\oldcontentsline
\let\newlabel\oldnewlabel
\fi}
\fi}
\global\let\hyper@last\relax 
\gdef\HyperFirstAtBeginDocument#1{#1}
\providecommand\HyField@AuxAddToFields[1]{}
\providecommand\HyField@AuxAddToCoFields[2]{}
\providecommand\BKM@entry[2]{}
\@input{sections/00_titelseite.aux}
\babel@aux{ngerman}{}
\@input{sections/01_grav.aux}
\BKM@entry{id=1,dest={73656374696F6E2E31},srcline={1},srcfile={73656374696F6E732F30315F677261762E746578}}{4765725C3334347465756D66616E67}
\BKM@entry{id=2,dest={73656374696F6E2E32},srcline={19},srcfile={73656374696F6E732F30315F677261762E746578}}{42656469656E756E67}
\BKM@entry{id=3,dest={73656374696F6E2E33},srcline={42},srcfile={73656374696F6E732F30315F677261762E746578}}{5A7520426561636874656E}
\providecommand\totalcount@set[2]{}
\totalcount@set{figure}{0}
\totalcount@set{subfigure}{0}
