\relax 
\providecommand\hyper@newdestlabel[2]{}
\gincltex@bb{bilder/remoteunit.tex}{0}{0}{483.8268}{385.2619}
\oddpage@label{6}{1}
\pgfsyspdfmark {pgfid7}{5594039}{52454693}
\oddpage@label{7}{1}
\pgfsyspdfmark {pgfid8}{19484056}{52454693}
\oddpage@label{8}{1}
\pgfsyspdfmark {pgfid9}{33374072}{52454693}
\@writefile{toc}{\contentsline {section}{\numberline {1}Hardware -- was haben wir?}{1}{section.1}\protected@file@percent }
\@writefile{lot}{\contentsline {table}{\numberline {1.1}{\ignorespaces Zubeh\IeC {\"o}r zum Ger\IeC {\"a}t\relax }}{1}{table.caption.1}\protected@file@percent }
\providecommand*\caption@xref[2]{\@setref\relax\@undefined{#1}}
\newlabel{tab:zubehoer}{{1.1}{1}{Zubehör zum Gerät\relax }{table.caption.1}{}}
\@writefile{lof}{\contentsline {figure}{\numberline {1.1}{\ignorespaces Aufsicht auf eine RemoteUnit mit Anschl\IeC {\"u}ssen.\relax }}{1}{figure.caption.2}\protected@file@percent }
\@setckpt{sections/01_hw}{
\setcounter{page}{2}
\setcounter{equation}{0}
\setcounter{enumi}{0}
\setcounter{enumii}{0}
\setcounter{enumiii}{0}
\setcounter{enumiv}{0}
\setcounter{footnote}{0}
\setcounter{mpfootnote}{0}
\setcounter{part}{0}
\setcounter{section}{1}
\setcounter{subsection}{0}
\setcounter{subsubsection}{0}
\setcounter{paragraph}{0}
\setcounter{subparagraph}{0}
\setcounter{figure}{1}
\setcounter{table}{1}
\setcounter{currfiledepth}{0}
\setcounter{caption@flags}{0}
\setcounter{ContinuedFloat}{0}
\setcounter{subfigure}{0}
\setcounter{subtable}{0}
\setcounter{parentequation}{0}
\setcounter{float@type}{8}
\setcounter{Item}{0}
\setcounter{Hfootnote}{0}
\setcounter{bookmark@seq@number}{0}
\setcounter{tcbbreakpart}{0}
\setcounter{tcblayer}{0}
\setcounter{@pps}{0}
\setcounter{@ppsavesec}{0}
\setcounter{@ppsaveapp}{0}
\setcounter{r@tfl@t}{0}
\setcounter{section@level}{0}
}
