\relax 
\providecommand\hyper@newdestlabel[2]{}
\oddpage@label{9}{4}
\pgfsyspdfmark {pgfid11}{5594039}{52454693}
\oddpage@label{10}{4}
\pgfsyspdfmark {pgfid12}{19484056}{52454693}
\oddpage@label{11}{4}
\pgfsyspdfmark {pgfid13}{33374072}{52454693}
\@writefile{toc}{\contentsline {section}{\numberline {2}Auspacken}{4}{section.2}\protected@file@percent }
\@setckpt{sections/02_auspacken}{
\setcounter{page}{5}
\setcounter{equation}{0}
\setcounter{enumi}{3}
\setcounter{enumii}{1}
\setcounter{enumiii}{0}
\setcounter{enumiv}{0}
\setcounter{footnote}{0}
\setcounter{mpfootnote}{0}
\setcounter{part}{0}
\setcounter{section}{2}
\setcounter{subsection}{0}
\setcounter{subsubsection}{0}
\setcounter{paragraph}{0}
\setcounter{subparagraph}{0}
\setcounter{figure}{0}
\setcounter{table}{0}
\setcounter{caption@flags}{0}
\setcounter{ContinuedFloat}{0}
\setcounter{currfiledepth}{0}
\setcounter{subfigure}{0}
\setcounter{subtable}{0}
\setcounter{parentequation}{0}
\setcounter{float@type}{16}
\setcounter{Item}{4}
\setcounter{Hfootnote}{0}
\setcounter{bookmark@seq@number}{0}
\setcounter{lstnumber}{1}
\setcounter{tcbbreakpart}{0}
\setcounter{tcblayer}{0}
\setcounter{@pps}{0}
\setcounter{@ppsavesec}{0}
\setcounter{@ppsaveapp}{0}
\setcounter{r@tfl@t}{0}
\setcounter{totalcount@figure}{2}
\setcounter{totalcount@subfigure}{0}
\setcounter{section@level}{0}
\setcounter{lstlisting}{0}
}
