\relax 
\providecommand\hyper@newdestlabel[2]{}
\gincltex@bb{bilder/remoteunit2.tex}{0}{0}{427.18814}{73.47885}
\oddpage@label{12}{3}
\pgfsyspdfmark {pgfid14}{5594039}{52454693}
\oddpage@label{13}{3}
\pgfsyspdfmark {pgfid15}{19484056}{52454693}
\oddpage@label{14}{3}
\pgfsyspdfmark {pgfid16}{33374072}{52454693}
\@writefile{toc}{\contentsline {section}{\numberline {3}Aufbau}{3}{section.3}\protected@file@percent }
\@writefile{lof}{\contentsline {figure}{\numberline {3.1}{\ignorespaces Auslage der RemoteUnits als Kette im Feld.\relax }}{3}{figure.caption.3}\protected@file@percent }
\@setckpt{sections/02_Aufbau}{
\setcounter{page}{4}
\setcounter{equation}{0}
\setcounter{enumi}{0}
\setcounter{enumii}{0}
\setcounter{enumiii}{0}
\setcounter{enumiv}{0}
\setcounter{footnote}{0}
\setcounter{mpfootnote}{0}
\setcounter{part}{0}
\setcounter{section}{3}
\setcounter{subsection}{0}
\setcounter{subsubsection}{0}
\setcounter{paragraph}{0}
\setcounter{subparagraph}{0}
\setcounter{figure}{1}
\setcounter{table}{0}
\setcounter{currfiledepth}{0}
\setcounter{caption@flags}{0}
\setcounter{ContinuedFloat}{0}
\setcounter{subfigure}{0}
\setcounter{subtable}{0}
\setcounter{parentequation}{0}
\setcounter{float@type}{8}
\setcounter{Item}{0}
\setcounter{Hfootnote}{0}
\setcounter{bookmark@seq@number}{0}
\setcounter{tcbbreakpart}{0}
\setcounter{tcblayer}{0}
\setcounter{@pps}{0}
\setcounter{@ppsavesec}{0}
\setcounter{@ppsaveapp}{0}
\setcounter{r@tfl@t}{0}
\setcounter{section@level}{0}
}
