\relax 
\providecommand\hyper@newdestlabel[2]{}
\oddpage@label{6}{3}
\pgfsyspdfmark {pgfid11}{5594039}{52454693}
\oddpage@label{7}{3}
\pgfsyspdfmark {pgfid12}{19471498}{52454693}
\oddpage@label{8}{3}
\pgfsyspdfmark {pgfid13}{33348956}{52454693}
\@writefile{toc}{\contentsline {subsection}{\numberline {1.1}no-IP client}{3}{subsection.1.1}}
\oddpage@label{9}{4}
\pgfsyspdfmark {pgfid17}{5594039}{52454693}
\oddpage@label{10}{4}
\pgfsyspdfmark {pgfid18}{19471498}{52454693}
\oddpage@label{11}{4}
\pgfsyspdfmark {pgfid19}{33348956}{52454693}
\@setckpt{sections/02_sw_noipclient}{
\setcounter{page}{5}
\setcounter{equation}{0}
\setcounter{enumi}{2}
\setcounter{enumii}{0}
\setcounter{enumiii}{0}
\setcounter{enumiv}{0}
\setcounter{footnote}{0}
\setcounter{mpfootnote}{0}
\setcounter{part}{0}
\setcounter{section}{1}
\setcounter{subsection}{1}
\setcounter{subsubsection}{0}
\setcounter{paragraph}{0}
\setcounter{subparagraph}{0}
\setcounter{figure}{0}
\setcounter{table}{0}
\setcounter{ContinuedFloat}{0}
\setcounter{subfigure}{0}
\setcounter{subtable}{0}
\setcounter{parentequation}{0}
\setcounter{float@type}{16}
\setcounter{Item}{2}
\setcounter{Hfootnote}{0}
\setcounter{bookmark@seq@number}{2}
\setcounter{lips@count}{0}
\setcounter{lstnumber}{19}
\setcounter{tcbbreakpart}{1}
\setcounter{tcblayer}{0}
\setcounter{@pps}{0}
\setcounter{@ppsavesec}{0}
\setcounter{@ppsaveapp}{0}
\setcounter{r@tfl@t}{0}
\setcounter{totalcount@figure}{0}
\setcounter{totalcount@subfigure}{0}
\setcounter{section@level}{0}
\setcounter{lstlisting}{0}
}
