\relax 
\providecommand\hyper@newdestlabel[2]{}
\oddpage@label{21}{6}
\pgfsyspdfmark {pgfid23}{5594039}{52454693}
\oddpage@label{22}{6}
\pgfsyspdfmark {pgfid24}{19484056}{52454693}
\oddpage@label{23}{6}
\pgfsyspdfmark {pgfid25}{33374072}{52454693}
\@writefile{toc}{\contentsline {section}{\numberline {6}Auspacken}{6}{section.6}\protected@file@percent }
\@setckpt{sections/06_auspacken}{
\setcounter{page}{7}
\setcounter{equation}{0}
\setcounter{enumi}{0}
\setcounter{enumii}{0}
\setcounter{enumiii}{0}
\setcounter{enumiv}{0}
\setcounter{footnote}{0}
\setcounter{mpfootnote}{0}
\setcounter{part}{0}
\setcounter{section}{6}
\setcounter{subsection}{0}
\setcounter{subsubsection}{0}
\setcounter{paragraph}{0}
\setcounter{subparagraph}{0}
\setcounter{figure}{0}
\setcounter{table}{0}
\setcounter{currfiledepth}{0}
\setcounter{caption@flags}{0}
\setcounter{ContinuedFloat}{0}
\setcounter{subfigure}{0}
\setcounter{subtable}{0}
\setcounter{parentequation}{0}
\setcounter{float@type}{8}
\setcounter{Item}{0}
\setcounter{Hfootnote}{0}
\setcounter{bookmark@seq@number}{0}
\setcounter{tcbbreakpart}{0}
\setcounter{tcblayer}{0}
\setcounter{@pps}{0}
\setcounter{@ppsavesec}{0}
\setcounter{@ppsaveapp}{0}
\setcounter{r@tfl@t}{0}
\setcounter{section@level}{0}
}
